project_001/wave.vcd
$date
	Tue Jan 20 16:47:42 2026
$end
$version
	ModelSim Version 2020.1
$end
$timescale
	1ps
$end

$scope module tb_ALU $end
$var parameter 32 ! DATA_WIDTH $end
$var reg 3 " sel_in [2:0] $end
$var reg 4 # a_in [3:0] $end
$var reg 4 $ b_in [3:0] $end
$var reg 8 % alu_out [7:0] $end
$var reg 1 & clk $end

$scope function expected_alu $end
$var reg 8 ' expected_alu [7:0] $end
$var reg 3 ( sel_in [2:0] $end
$var reg 4 ) a_in [3:0] $end
$var reg 4 * b_in [3:0] $end
$var reg 6 + 0 [5:0] $end
$upscope $end

$scope task check_operation $end
$var reg 3 , op_code [2:0] $end
$var reg 8 - result [7:0] $end
$upscope $end

$scope module alu_inst $end
$var parameter 32 . DATA_WIDTH $end
$var wire 1 / sel_in [2] $end
$var wire 1 0 sel_in [1] $end
$var wire 1 1 sel_in [0] $end
$var wire 1 2 a_in [3] $end
$var wire 1 3 a_in [2] $end
$var wire 1 4 a_in [1] $end
$var wire 1 5 a_in [0] $end
$var wire 1 6 b_in [3] $end
$var wire 1 7 b_in [2] $end
$var wire 1 8 b_in [1] $end
$var wire 1 9 b_in [0] $end
$var reg 8 : alu_out [7:0] $end
$var reg 6 ; 1 [5:0] $end
$upscope $end
$upscope $end
$enddefinitions $end
#0
$dumpvars
bx "
bx #
bx $
b0 %
0&
b0 :
bx '
bx (
bx )
bx *
bx ,
bx -
bx +
b0 ;
b100 !
b100 .
x1
x0
x/
x5
x4
x3
x2
x9
x8
x7
x6
$end
#10000
1&
b0 ,
b10 #
b10 $
b0 "
01
00
0/
09
18
07
06
05
14
03
02
b100000 ;
b100 :
b100 %
#20000
0&
#30000
1&
#31000
b0 (
b10 )
b10 *
b100000 +
b100 '
b100 -
b0 #
b0 $
08
04
b0 :
b0 %
#40000
0&
#50000
1&
#51000
b0 )
b0 *
b0 '
b0 -
b101 #
b110 $
18
17
15
13
b1011 :
b1011 %
#60000
0&
#70000
1&
#71000
b101 )
b110 *
b1011 '
b1011 -
b100 #
b1111 $
19
16
05
b0 :
b11 :
b11 %
#80000
0&
#90000
1&
#91000
b100 )
b1111 *
b11 '
b11 -
b1011 #
b1011 $
07
15
14
03
12
b0 :
b11110110 :
b11110110 %
#100000
0&
#110000
1&
#111000
b1011 )
b1011 *
b11110110 '
b11110110 -
b1 #
b0 $
09
08
06
04
02
b0 :
b1 :
b1 %
#120000
0&
#130000
1&
#131000
b1 )
b0 *
b1 '
b1 -
b1010 #
b11 $
19
18
05
14
12
b0 :
b11111101 :
b11111101 %
#140000
0&
#150000
1&
#151000
b1010 )
b11 *
b11111101 '
b11111101 -
b1100 #
b1101 $
08
17
16
04
13
b0 :
b11111001 :
b11111001 %
#160000
0&
#170000
1&
#171000
b1100 )
b1101 *
b11111001 '
b11111001 -
b1101 #
b1010 $
09
18
07
15
b0 :
b11110111 :
b11110111 %
#180000
0&
#190000
1&
#191000
b1101 )
b1010 *
b11110111 '
b11110111 -
b110 #
b1111 $
19
17
05
14
02
b0 :
b101 :
b101 %
#200000
0&
#210000
1&
#211000
b110 )
b1111 *
b101 '
b101 -
b1 ,
b11 #
b1000 $
b1 "
11
09
08
07
15
03
b0 :
b10000 ;
b1011 :
b1011 %
#220000
0&
#230000
1&
#231000
b1 (
b11 )
b1000 *
b10000 +
b1011 '
b1011 -
b0 #
b101 $
19
17
06
05
04
b0 :
b11111011 :
b11111011 %
#240000
0&
#250000
1&
#251000
b0 )
b101 *
b11111011 '
b11111011 -
b10 #
b1011 $
18
07
16
14
b0 :
b111 :
b111 %
#260000
0&
#270000
1&
#271000
b10 )
b1011 *
b111 '
b111 -
b1 $
08
06
b0 :
b1 :
b1 %
#280000
0&
#290000
1&
#291000
b1 *
b1 '
b1 -
b1101 #
b100 $
09
17
15
04
13
12
b0 :
b11111001 :
b11111001 %
#300000
0&
#310000
1&
#311000
b1101 )
b100 *
b11111001 '
b11111001 -
b1011 #
b1010 $
18
07
16
14
03
b0 :
b1 :
b1 %
#320000
0&
#330000
1&
#331000
b1011 )
b1010 *
b1 '
b1 -
b1 #
b110 $
17
06
04
02
b0 :
b11111011 :
b11111011 %
#340000
0&
#350000
1&
#351000
b1 )
b110 *
b11111011 '
b11111011 -
b110 #
b101 $
19
08
05
14
13
b0 :
b1 :
b1 %
#360000
0&
#370000
1&
#371000
b110 )
b101 *
b1 '
b1 -
b1000 $
09
07
16
b0 :
b1110 :
b1110 %
#380000
0&
#390000
1&
#391000
b1000 *
b1110 '
b1110 -
b100 #
b1 $
19
06
04
b0 :
b11 :
b11 %
#400000
0&
#410000
1&
#411000
b100 )
b1 *
b11 '
b11 -
b10 ,
b111 #
b1101 $
b10 "
01
10
17
16
15
14
b0 :
b1000 ;
b11101011 :
b11101011 %
#420000
0&
#430000
1&
#431000
b10 (
b111 )
b1101 *
b1000 +
b11101011 '
b11101011 -
b10 #
b1001 $
07
05
03
b0 :
b11110010 :
b11110010 %
#440000
0&
#450000
1&
#451000
b10 )
b1001 *
b11110010 '
b11110010 -
b100 #
b1101 $
17
04
13
b0 :
b11110100 :
b11110100 %
#460000
0&
#470000
1&
#471000
b100 )
b1101 *
b11110100 '
b11110100 -
b1100 #
b1011 $
18
07
12
b0 :
b10100 :
b10100 %
#480000
0&
#490000
1&
#491000
b1100 )
b1011 *
b10100 '
b10100 -
b0 $
09
08
06
b0 :
b0 %
#500000
0&
#510000
1&
#511000
b0 *
b0 '
b0 -
b0 #
b1100 $
17
16
03
02
#520000
0&
#530000
1&
#531000
b0 )
b1100 *
b1 #
b1101 $
19
15
b11111101 :
b11111101 %
#540000
0&
#550000
1&
#551000
b1 )
b1101 *
b11111101 '
b11111101 -
b1101 #
b110 $
09
18
06
13
12
b0 :
b11101110 :
b11101110 %
#560000
0&
#570000
1&
#571000
b1101 )
b110 *
b11101110 '
b11101110 -
b1001 #
b10 $
07
03
b0 :
b11110010 :
b11110010 %
#580000
0&
#590000
1&
#591000
b1001 )
b10 *
b11110010 '
b11110010 -
b11 #
b101 $
19
08
17
14
02
b0 :
b1111 :
b1111 %
#600000
0&
#610000
1&
#611000
b11 )
b101 *
b1111 '
b1111 -
b11 ,
b1110 #
b11 "
11
05
13
12
b0 :
b100 ;
b100 :
b100 %
#620000
0&
#630000
1&
#631000
b11 (
b1110 )
b100 +
b100 '
b100 -
b110 #
b1000 $
09
07
16
02
b0 :
b0 %
#640000
0&
#650000
1&
#651000
b110 )
b1000 *
b0 '
b0 -
b111 #
b111 $
19
18
17
06
15
b111 :
b111 %
#660000
0&
#670000
1&
#671000
b111 )
b111 *
b111 '
b111 -
b11 #
b101 $
08
03
b0 :
b1 :
b1 %
#680000
0&
#690000
1&
#691000
b11 )
b101 *
b1 '
b1 -
b1000 #
b1 $
07
05
04
12
b0 :
b0 %
#700000
0&
#710000
1&
#711000
b1000 )
b1 *
b0 '
b0 -
b1111 #
b1000 $
09
16
15
14
13
b11111000 :
b11111000 %
#720000
0&
#730000
1&
#731000
b1111 )
b1000 *
b11111000 '
b11111000 -
b1100 #
b1100 $
17
05
04
b0 :
b11111100 :
b11111100 %
#740000
0&
#750000
1&
#751000
b1100 )
b1100 *
b11111100 '
b11111100 -
#760000
0&
#770000
1&
#771000
b1001 #
b11 $
19
18
07
06
15
03
b0 :
b1 :
b1 %
#780000
0&
#790000
1&
#791000
b1001 )
b11 *
b1 '
b1 -
b1010 #
b1100 $
09
08
17
16
05
14
b0 :
b11111000 :
b11111000 %
#800000
0&
#810000
1&
#811000
b1010 )
b1100 *
b11111000 '
b11111000 -
b100 ,
b11 #
b111 $
b100 "
01
00
1/
19
18
06
15
02
b0 :
b10 ;
b111 :
b111 %
#820000
0&
#830000
1&
#831000
b100 (
b11 )
b111 *
b10 +
b111 '
b111 -
b1010 #
b101 $
08
05
12
b0 :
b11111111 :
b11111111 %
#840000
0&
#850000
1&
#851000
b1010 )
b101 *
b11111111 '
b11111111 -
b100 #
b0 $
09
07
04
13
02
b0 :
b100 :
b100 %
#860000
0&
#870000
1&
#871000
b100 )
b0 *
b100 '
b100 -
b1001 #
b1110 $
18
17
16
15
03
12
b0 :
b11111111 :
b11111111 %
#880000
0&
#890000
1&
#891000
b1001 )
b1110 *
b11111111 '
b11111111 -
b1010 #
b1001 $
19
08
07
05
14
b0 :
b11111011 :
b11111011 %
#900000
0&
#910000
1&
#911000
b1010 )
b1001 *
b11111011 '
b11111011 -
b1011 #
b1110 $
09
18
17
15
b0 :
b11111111 :
b11111111 %
#920000
0&
#930000
1&
#931000
b1011 )
b1110 *
b11111111 '
b11111111 -
b101 #
b100 $
08
06
04
13
02
b0 :
b101 :
b101 %
#940000
0&
#950000
1&
#951000
b101 )
b100 *
b101 '
b101 -
b1111 #
14
12
b0 :
b11111111 :
b11111111 %
#960000
0&
#970000
1&
#971000
b1111 )
b11111111 '
b11111111 -
b110 #
b1110 $
18
16
05
02
b0 :
b11111110 :
b11111110 %
#980000
0&
#990000
1&
#991000
b110 )
b1110 *
b11111110 '
b11111110 -
b111 #
b101 $
19
08
06
15
b0 :
b111 :
b111 %
#1000000
0&
#1010000
1&
#1011000
b111 )
b101 *
b111 '
b111 -
